<?xml version="1.0" encoding="utf-8"?>
<!-- Generator: Adobe Illustrator 16.0.3, SVG Export Plug-In . SVG Version: 6.00 Build 0)  -->
<!DOCTYPE svg PUBLIC "-//W3C//DTD SVG 1.1//EN" "http://www.w3.org/Graphics/SVG/1.1/DTD/svg11.dtd">
<svg version="1.1" id="Capa_1" xmlns="http://www.w3.org/2000/svg" xmlns:xlink="http://www.w3.org/1999/xlink" x="0px" y="0px"
	 width="200px" height="160px" viewBox="0 0 200 160" enable-background="new 0 0 200 160" xml:space="preserve">
<g>
	<g>
		<path fill="#15988C" d="M144.701,24.738c-0.954-0.376-3.004,0.94-5.255,2.798l0.972-4.386
			c-7.103,3.004-12.249,12.172-12.249,12.172l0.002,0.001c-12.672-4.285-23.592-5.658-32.587-5.539
			c-9.088-0.119-20.147,1.288-32.993,5.68c-1.075-5.126-12.748-12.315-12.748-12.315l0.564,3.348
			c-1.71-1.278-3.175-2.063-3.94-1.759c-2.699,1.064-16.416,74.15,9.22,104.285c10.478,12.315,24.735,16.2,39.899,16.082
			c14.748,0.118,29.422-3.767,39.898-16.082C161.116,98.888,147.397,25.803,144.701,24.738z"/>
		<g>
			<path fill="#F59A00" d="M88.398,154.013l-3.438-3.189v-8.79c0-1.18-0.955-2.138-2.136-2.138c-1.183,0-2.141,0.958-2.141,2.138
				v8.464c-0.199,0.113-0.387,0.259-0.543,0.446l-3.066,3.662c-0.708,0.846-0.598,2.104,0.249,2.813
				c0.846,0.709,2.104,0.597,2.813-0.248l0.89-1.063v0.895c0,1.103,0.893,1.997,1.996,1.997c1.102,0,1.998-0.894,1.998-1.997v-0.682
				l0.667,0.617c0.807,0.751,2.071,0.705,2.82-0.104C89.254,156.026,89.208,154.762,88.398,154.013z"/>
			<path fill="#F59A00" d="M113.923,154.013l-3.44-3.189v-8.79c0-1.18-0.956-2.138-2.135-2.138c-1.185,0-2.141,0.958-2.141,2.138
				v8.464c-0.201,0.113-0.386,0.259-0.542,0.446l-3.07,3.662c-0.706,0.846-0.597,2.104,0.251,2.813
				c0.846,0.709,2.105,0.597,2.812-0.248l0.892-1.063v0.895c0,1.103,0.893,1.997,1.995,1.997s1.998-0.894,1.998-1.997v-0.682
				l0.666,0.617c0.808,0.751,2.071,0.705,2.821-0.104C114.778,156.026,114.731,154.762,113.923,154.013z"/>
		</g>
		<g>
			<path opacity="0.8" fill="#A5D5D1" enable-background="new    " d="M140.202,33.23l-3.017,1.654l0.584-2.238
				c0,0-1.946,0.875-7.101,4.67c-5.154,3.793-10.504,3.305-10.504,3.305c-20.026,1.474-23.975,16.864-24.602,20.195
				c-1.017-4.21-3.074-8.015-5.886-11.125c-3.599-4.324-9.539-8.351-19.299-9.07c0,0-5.349,0.488-10.503-3.305
				c-5.155-3.794-7.102-4.67-7.102-4.67l0.583,2.238l-3.014-1.654c0,0-13.813,33.116,0,49.094c0.01,0.013,0.021,0.023,0.033,0.035
				c4.675,6.116,12.042,10.064,20.332,10.064c12.076,0,22.19-8.369,24.875-19.622c2.688,11.252,12.8,19.622,24.876,19.622
				c13.719,0,24.912-10.8,25.549-24.362C148.018,51.974,140.202,33.23,140.202,33.23z"/>
			<path fill="#FFFFFF" d="M103.087,66.225c0,10.309,8.356,18.666,18.667,18.666c10.307,0,18.664-8.356,18.664-18.666
				c0-10.309-8.359-18.665-18.664-18.665C111.443,47.561,103.087,55.917,103.087,66.225z"/>
			<circle fill="#FFFFFF" cx="69.417" cy="66.225" r="18.665"/>
			<path fill="#005560" d="M60.22,71.791c-0.013-0.197-0.029-0.394-0.029-0.595c0-5.088,4.138-9.226,9.226-9.226
				c5.087,0,9.226,4.138,9.226,9.226c0,0.201-0.018,0.398-0.031,0.595h4.45c0.01-0.199,0.032-0.394,0.032-0.595
				c0-7.541-6.135-13.677-13.677-13.677c-7.541,0-13.677,6.136-13.677,13.677c0,0.201,0.023,0.396,0.031,0.595H60.22z"/>
			<path fill="#005560" d="M112.555,71.791c-0.013-0.197-0.028-0.394-0.028-0.595c0-5.088,4.139-9.226,9.228-9.226
				c5.085,0,9.222,4.138,9.222,9.226c0,0.201-0.015,0.398-0.027,0.595h4.448c0.011-0.199,0.031-0.394,0.031-0.595
				c0-7.541-6.136-13.677-13.674-13.677c-7.543,0-13.679,6.136-13.679,13.677c0,0.201,0.022,0.396,0.031,0.595H112.555z"/>
		</g>
		<g>
			<polygon fill="#F7B038" points="88.881,74.271 95.583,83.526 95.583,67.913 			"/>
			<polygon fill="#F59A00" points="95.583,67.913 95.583,83.526 102.288,74.271 			"/>
		</g>
		<g>
			<g>
				<path fill="#54A8BA" d="M128.606,135.75c0.751-2.738,1.157-5.614,1.157-8.583c0-18.38-15.305-33.281-34.18-33.281
					c-18.877,0-34.178,14.901-34.178,33.281c0,2.983,0.409,5.872,1.166,8.624c9.468,7.197,20.953,9.643,33.012,9.549
					C107.333,145.434,119.038,142.981,128.606,135.75z"/>
			</g>
			<g>
				<g>
					<path id="SVGID_533_" fill="#A5D5D1" d="M128.606,135.75c0.751-2.738,1.157-5.614,1.157-8.583
						c0-18.38-15.305-33.281-34.18-33.281c-18.877,0-34.178,14.901-34.178,33.281c0,2.983,0.409,5.872,1.166,8.624
						c9.468,7.197,20.953,9.643,33.012,9.549C107.333,145.434,119.038,142.981,128.606,135.75z"/>
				</g>
				<g>
					<defs>
						<path id="SVGID_1_" d="M128.606,135.75c0.751-2.738,1.157-5.614,1.157-8.583c0-18.38-15.305-33.281-34.18-33.281
							c-18.877,0-34.178,14.901-34.178,33.281c0,2.983,0.409,5.872,1.166,8.624c9.468,7.197,20.953,9.643,33.012,9.549
							C107.333,145.434,119.038,142.981,128.606,135.75z"/>
					</defs>
					<clipPath id="SVGID_2_">
						<use xlink:href="#SVGID_1_"  overflow="visible"/>
					</clipPath>
					<g clip-path="url(#SVGID_2_)">
						<g>
							<polygon fill="#007E97" points="79.329,106.301 72.417,106.301 75.949,109.832 							"/>
							<polygon fill="#007E97" points="87.05,106.301 80.139,106.301 83.671,109.832 							"/>
							<polygon fill="#007E97" points="94.772,106.301 87.862,106.301 91.393,109.832 							"/>
							<polygon fill="#007E97" points="102.495,106.301 95.583,106.301 99.113,109.832 							"/>
							<polygon fill="#007E97" points="110.216,106.301 103.306,106.301 106.838,109.832 							"/>
							<polygon fill="#007E97" points="117.939,106.301 111.028,106.301 114.558,109.832 							"/>
							<polygon fill="#007E97" points="125.658,106.301 118.748,106.301 122.28,109.832 							"/>
							<polygon fill="#007E97" points="71.605,106.301 64.694,106.301 68.227,109.832 							"/>
						</g>
						<g>
							<polygon fill="#007E97" points="83.188,101.681 76.278,101.681 79.809,105.212 							"/>
							<polygon fill="#007E97" points="90.911,101.681 84,101.681 87.53,105.212 							"/>
							<polygon fill="#007E97" points="98.633,101.681 91.723,101.681 95.252,105.212 							"/>
							<polygon fill="#007E97" points="106.354,101.681 99.443,101.681 102.975,105.212 							"/>
							<polygon fill="#007E97" points="114.076,101.681 107.166,101.681 110.698,105.212 							"/>
							<polygon fill="#007E97" points="121.798,101.681 114.887,101.681 118.418,105.212 							"/>
							<polygon fill="#007E97" points="75.467,101.681 68.556,101.681 72.088,105.212 							"/>
							<polygon fill="#007E97" points="137.243,101.681 130.333,101.681 133.863,105.212 							"/>
						</g>
						<g>
							<polygon fill="#007E97" points="75.467,92.444 68.556,92.444 72.088,95.975 							"/>
							<polygon fill="#007E97" points="83.188,92.444 76.278,92.444 79.809,95.975 							"/>
							<polygon fill="#007E97" points="90.911,92.444 84,92.444 87.531,95.975 							"/>
							<polygon fill="#007E97" points="98.633,92.444 91.723,92.444 95.252,95.975 							"/>
							<polygon fill="#007E97" points="106.354,92.444 99.443,92.444 102.975,95.975 							"/>
							<polygon fill="#007E97" points="114.076,92.444 107.168,92.444 110.698,95.975 							"/>
							<polygon fill="#007E97" points="121.798,92.444 114.887,92.444 118.418,95.975 							"/>
							<polygon fill="#007E97" points="67.746,92.444 60.834,92.444 64.366,95.975 							"/>
							<polygon fill="#007E97" points="137.243,92.444 130.333,92.444 133.863,95.975 							"/>
							<polygon fill="#007E97" points="129.521,92.444 122.61,92.444 126.143,95.975 							"/>
						</g>
						<g>
							<polygon fill="#007E97" points="79.329,97.062 72.417,97.062 75.949,100.594 							"/>
							<polygon fill="#007E97" points="87.05,97.062 80.139,97.062 83.671,100.594 							"/>
							<polygon fill="#007E97" points="94.772,97.062 87.862,97.062 91.393,100.594 							"/>
							<polygon fill="#007E97" points="102.495,97.062 95.583,97.062 99.113,100.594 							"/>
							<polygon fill="#007E97" points="110.216,97.062 103.306,97.062 106.838,100.594 							"/>
							<polygon fill="#007E97" points="117.939,97.062 111.028,97.062 114.558,100.594 							"/>
							<polygon fill="#007E97" points="71.605,97.062 64.694,97.062 68.227,100.594 							"/>
							<polygon fill="#007E97" points="141.103,97.062 134.192,97.062 137.725,100.594 							"/>
							<polygon fill="#007E97" points="133.381,97.062 126.471,97.062 130.003,100.594 							"/>
						</g>
						<g>
							<polygon fill="#007E97" points="78.922,124.777 72.012,124.777 75.543,128.308 							"/>
							<polygon fill="#007E97" points="86.644,124.777 79.734,124.777 83.265,128.308 							"/>
							<polygon fill="#007E97" points="94.365,124.777 87.456,124.777 90.987,128.308 							"/>
							<polygon fill="#007E97" points="102.088,124.777 95.178,124.777 98.707,128.308 							"/>
							<polygon fill="#007E97" points="109.81,124.777 102.899,124.777 106.432,128.308 							"/>
							<polygon fill="#007E97" points="117.532,124.777 110.621,124.777 114.154,128.308 							"/>
							<polygon fill="#007E97" points="125.254,124.777 118.344,124.777 121.874,128.308 							"/>
							<polygon fill="#007E97" points="71.199,124.777 64.291,124.777 67.82,128.308 							"/>
							<polygon fill="#007E97" points="63.478,124.777 56.567,124.777 60.099,128.308 							"/>
							<polygon fill="#007E97" points="140.697,124.777 133.787,124.777 137.319,128.308 							"/>
							<polygon fill="#007E97" points="132.977,124.777 126.066,124.777 129.597,128.308 							"/>
						</g>
						<g>
							<polygon fill="#007E97" points="60.024,120.157 53.112,120.157 56.644,123.688 							"/>
							<polygon fill="#007E97" points="82.782,120.157 75.873,120.157 79.403,123.688 							"/>
							<polygon fill="#007E97" points="90.505,120.157 83.593,120.157 87.125,123.688 							"/>
							<polygon fill="#007E97" points="98.227,120.157 91.316,120.157 94.848,123.688 							"/>
							<polygon fill="#007E97" points="105.949,120.157 99.039,120.157 102.569,123.688 							"/>
							<polygon fill="#007E97" points="113.67,120.157 106.76,120.157 110.291,123.688 							"/>
							<polygon fill="#007E97" points="121.392,120.157 114.481,120.157 118.014,123.688 							"/>
							<polygon fill="#007E97" points="129.116,120.157 122.202,120.157 125.734,123.688 							"/>
							<polygon fill="#007E97" points="75.06,120.157 68.15,120.157 71.681,123.688 							"/>
							<polygon fill="#007E97" points="67.339,120.157 60.428,120.157 63.96,123.688 							"/>
							<polygon fill="#007E97" points="136.837,120.157 129.927,120.157 133.457,123.688 							"/>
						</g>
						<g>
							<polygon fill="#007E97" points="59.618,110.919 52.708,110.919 56.237,114.451 							"/>
							<polygon fill="#007E97" points="75.06,110.919 68.15,110.919 71.682,114.451 							"/>
							<polygon fill="#007E97" points="82.782,110.919 75.873,110.919 79.403,114.451 							"/>
							<polygon fill="#007E97" points="90.506,110.919 83.595,110.919 87.127,114.451 							"/>
							<polygon fill="#007E97" points="98.227,110.919 91.316,110.919 94.847,114.451 							"/>
							<polygon fill="#007E97" points="105.949,110.919 99.039,110.919 102.569,114.451 							"/>
							<polygon fill="#007E97" points="113.672,110.919 106.761,110.919 110.294,114.451 							"/>
							<polygon fill="#007E97" points="121.392,110.919 114.481,110.919 118.014,114.451 							"/>
							<polygon fill="#007E97" points="67.339,110.919 60.428,110.919 63.96,114.451 							"/>
							<polygon fill="#007E97" points="129.116,110.919 122.202,110.919 125.734,114.451 							"/>
						</g>
						<g>
							<polygon fill="#007E97" points="78.922,115.537 72.012,115.537 75.543,119.069 							"/>
							<polygon fill="#007E97" points="86.644,115.537 79.734,115.537 83.265,119.069 							"/>
							<polygon fill="#007E97" points="94.365,115.537 87.456,115.537 90.987,119.069 							"/>
							<polygon fill="#007E97" points="102.088,115.537 95.178,115.537 98.707,119.069 							"/>
							<polygon fill="#007E97" points="109.81,115.537 102.899,115.537 106.432,119.069 							"/>
							<polygon fill="#007E97" points="117.532,115.537 110.621,115.537 114.154,119.069 							"/>
							<polygon fill="#007E97" points="125.254,115.537 118.344,115.537 121.874,119.069 							"/>
							<polygon fill="#007E97" points="71.199,115.537 64.291,115.537 67.82,119.069 							"/>
							<polygon fill="#007E97" points="63.478,115.537 56.567,115.537 60.099,119.069 							"/>
							<polygon fill="#007E97" points="140.697,115.537 133.787,115.537 137.319,119.069 							"/>
							<polygon fill="#007E97" points="132.977,115.537 126.066,115.537 129.597,119.069 							"/>
						</g>
						<g>
							<polygon fill="#007E97" points="71.202,143.253 64.291,143.253 67.821,146.783 							"/>
							<polygon fill="#007E97" points="78.922,143.253 72.012,143.253 75.543,146.783 							"/>
							<polygon fill="#007E97" points="86.644,143.253 79.734,143.253 83.265,146.783 							"/>
							<polygon fill="#007E97" points="94.365,143.253 87.456,143.253 90.987,146.783 							"/>
							<polygon fill="#007E97" points="102.088,143.253 95.178,143.253 98.708,146.783 							"/>
							<polygon fill="#007E97" points="109.811,143.253 102.899,143.253 106.432,146.783 							"/>
							<polygon fill="#007E97" points="117.532,143.253 110.623,143.253 114.154,146.783 							"/>
							<polygon fill="#007E97" points="125.254,143.253 118.344,143.253 121.874,146.783 							"/>
						</g>
						<g>
							<polygon fill="#007E97" points="136.431,138.633 129.521,138.633 133.051,142.165 							"/>
							<polygon fill="#007E97" points="75.063,138.633 68.152,138.633 71.682,142.165 							"/>
							<polygon fill="#007E97" points="82.782,138.633 75.873,138.633 79.403,142.165 							"/>
							<polygon fill="#007E97" points="90.506,138.633 83.595,138.633 87.127,142.165 							"/>
							<polygon fill="#007E97" points="98.227,138.633 91.316,138.633 94.848,142.165 							"/>
							<polygon fill="#007E97" points="105.949,138.633 99.039,138.633 102.569,142.165 							"/>
							<polygon fill="#007E97" points="113.672,138.633 106.761,138.633 110.294,142.165 							"/>
							<polygon fill="#007E97" points="121.392,138.633 114.484,138.633 118.014,142.165 							"/>
							<polygon fill="#007E97" points="67.339,138.633 60.429,138.633 63.96,142.165 							"/>
							<polygon fill="#007E97" points="59.618,138.633 52.708,138.633 56.239,142.165 							"/>
							<polygon fill="#007E97" points="129.116,138.633 122.204,138.633 125.734,142.165 							"/>
						</g>
						<g>
							<polygon fill="#007E97" points="136.663,129.395 129.751,129.395 133.283,132.927 							"/>
							<polygon fill="#007E97" points="67.339,129.395 60.429,129.395 63.96,132.927 							"/>
							<polygon fill="#007E97" points="75.063,129.395 68.152,129.395 71.682,132.927 							"/>
							<polygon fill="#007E97" points="82.785,129.395 75.873,129.395 79.405,132.927 							"/>
							<polygon fill="#007E97" points="90.506,129.395 83.595,129.395 87.127,132.927 							"/>
							<polygon fill="#007E97" points="98.227,129.395 91.316,129.395 94.848,132.927 							"/>
							<polygon fill="#007E97" points="105.951,129.395 99.039,129.395 102.571,132.927 							"/>
							<polygon fill="#007E97" points="113.672,129.395 106.761,129.395 110.294,132.927 							"/>
							<polygon fill="#007E97" points="59.618,129.395 52.708,129.395 56.239,132.927 							"/>
							<polygon fill="#007E97" points="129.116,129.395 122.204,129.395 125.734,132.927 							"/>
							<polygon fill="#007E97" points="121.392,129.395 114.484,129.395 118.014,132.927 							"/>
						</g>
						<g>
							<polygon fill="#007E97" points="71.202,134.014 64.291,134.014 67.821,137.545 							"/>
							<polygon fill="#007E97" points="78.922,134.014 72.012,134.014 75.543,137.545 							"/>
							<polygon fill="#007E97" points="86.644,134.014 79.734,134.014 83.265,137.545 							"/>
							<polygon fill="#007E97" points="94.365,134.014 87.456,134.014 90.987,137.545 							"/>
							<polygon fill="#007E97" points="102.088,134.014 95.178,134.014 98.708,137.545 							"/>
							<polygon fill="#007E97" points="109.811,134.014 102.899,134.014 106.432,137.545 							"/>
							<polygon fill="#007E97" points="117.532,134.014 110.623,134.014 114.154,137.545 							"/>
							<polygon fill="#007E97" points="63.48,134.014 56.569,134.014 60.099,137.545 							"/>
							<polygon fill="#007E97" points="140.291,134.014 133.381,134.014 136.913,137.545 							"/>
							<polygon fill="#007E97" points="132.977,134.014 126.066,134.014 129.597,137.545 							"/>
							<polygon fill="#007E97" points="125.254,134.014 118.344,134.014 121.874,137.545 							"/>
						</g>
					</g>
				</g>
			</g>
		</g>
		<path fill="#181823" d="M140.629,61.998c-0.715-2.18-1.941-4.277-3.862-6.163c-2.237-2.2-5.196-3.871-8.69-4.959
			c-3.076-0.953-6.558-1.458-10.322-1.458H72.423c-3.767,0-7.244,0.505-10.318,1.458c-3.493,1.088-6.458,2.759-8.692,4.959
			c-1.921,1.886-3.151,3.983-3.865,6.163c-2.695,8.227,2.021,17.677,5.591,21.82c0.231,0.273,0.615,0.687,1.127,1.157
			c1.764,1.624,5.124,3.984,9.794,3.984c3.706,0,7.393-1.484,10.954-4.414c2.938-2.414,5.466-4.786,7.575-7.086
			c4.721-5.154,7.32-9.962,7.613-14.165c0.034-0.528,0.045-1.028,0.045-1.514c0.208-1.211,0.289-1.918,0.289-1.918
			s1.778-0.53,2.478-0.539v-0.006h0.139v0.006c0.69,0,2.493,0.539,2.493,0.539s0.074,0.707,0.282,1.918
			c0,0.486,0.013,0.987,0.046,1.514c0.293,4.202,2.9,9.01,7.617,14.165c2.108,2.3,4.637,4.672,7.574,7.086
			c3.563,2.929,7.244,4.414,10.95,4.414c4.675,0,8.037-2.36,9.797-3.984c0.515-0.471,0.896-0.884,1.128-1.157
			C138.611,79.675,143.328,70.224,140.629,61.998z M89.812,63.388c-0.384,5.537-5.5,12.335-14.08,19.383
			c-8.573,7.051-15.768,3.029-18.808-0.5c-4.041-4.688-9.696-17.029-1.761-24.83c7.933-7.808,24.028-6.356,30.809-3.118
			C88.214,55.397,90.194,57.851,89.812,63.388z M95.163,56.742c-0.034,0-0.11,0-0.145,0c-0.97,0.033-3.546,0.236-3.546,0.236
			C91,55.714,90.35,54.73,89.625,53.976c-0.745-0.774-1.57-1.313-2.357-1.689c-0.486-0.232-1.011-0.447-1.561-0.654
			c-0.039-0.019-0.092-0.044-0.125-0.057c0,0,7.126-0.367,9.508-0.367c2.38,0,9.51,0.367,9.51,0.367
			c-0.033,0.013-0.089,0.039-0.129,0.057c-0.548,0.208-1.074,0.423-1.559,0.654c-0.786,0.377-1.611,0.915-2.36,1.689
			c-0.721,0.756-1.371,1.738-1.843,3.002C98.707,56.977,96.131,56.779,95.163,56.742z M133.258,82.271
			c-3.044,3.529-10.237,7.551-18.814,0.5c-8.572-7.048-13.691-13.847-14.08-19.383c-0.378-5.537,1.604-7.991,3.845-9.064
			c6.779-3.239,22.876-4.69,30.808,3.118C142.951,65.243,137.291,77.583,133.258,82.271z"/>
		<path fill="#007E97" d="M121.354,141.728c0,0,42.206-15.934,20.179-63.891C141.53,77.837,106.448,115.463,121.354,141.728z"/>
		<path fill="#007E97" d="M71.078,141.524c0,0-46.452-15.934-24.792-61.468C46.286,80.057,85.731,116.586,71.078,141.524z"/>
		<g>
			<path fill="#744618" d="M171.976,62.668c0,0-1.942,3.428-5.889,6.349l0.06-0.255c4.855-4.219,5.581-11.487,2.671-16.878
				c0,0-0.713,6.757-4.877,10.752l0.022-0.437c-3.881-31.179-25.305-51.771-48.533-57.435c-24.996-6.095-34.623,1.72-34.623,1.72
				c-7.766,0.468-17.201,3.146-24.103,7.032c-18.607,10.471-27.342,31.1-19.739,50.792l0.243-0.123
				c-0.214,0.542-0.418,1.09-0.616,1.641l-0.03-0.111c-3.155,1.522-6.431-3.282-6.431-3.282
				c-7.886,13.713,3.032,20.511,3.032,20.511c-3.032,1.29-6.55-0.351-6.55-0.351c2.304,4.688,7.644,5.156,7.644,5.156
				c-2.061,4.808,1.212,9.377,1.212,9.377c-0.729-2.813,1.094-5.742,1.094-5.742c-0.122,4.687,3.639,10.313,7.643,12.659
				c3.276,1.875,10.436,2.226,10.92-2.814l-1.333-2.637c0,0-0.911,1.581-3.218,1.524c-2.304-0.059-4.489-2.17-5.276-3.166
				l-0.041-0.147c9.522,4.102,17.512-1.786,17.512-1.786c-6.958,4.232-15.84-2.116-18.337-8.222
				c-1.266-3.097,1.904,1.719,2.018-1.435l5.37,4.395c1.294-0.546-2.307-9.823-1.66-8.886c0,0,0.315-6.248,3.955-9.137
				c0,0,0.971-1.019,1.859-5.94c0.885-4.888,3.926-17.715,8.801-22.253c0.711-0.524,1.42-1.027,2.121-1.501
				c2.554-1.726,5.981-3.975,8.656-6.671c0.666-0.378,1.051-0.596,1.051-0.596c20.142-11.486,37.372,9.845,45.137,25.083
				c3.654,6.907,8.346,14.111,14.966,18.331c0.068,6.534-1.943,9.955-1.943,9.955c0.08,7.972-6.796,18.912-6.796,18.912
				l-0.158,0.625c7.034,4.22,13.83-0.938,13.83-0.938c-6.555,1.404-8.737-3.752-8.737-3.752c10.437,8.207,18.201-3.046,18.201-3.046
				c-5.823,2.344-7.765-0.704-7.765-0.704c10.92,1.172,13.346-8.909,13.346-8.909c-7.28,5.627-14.802,0.704-14.802,0.704
				c14.317,4.455,18.686-9.143,18.686-9.143c-3.884,1.642-7.523,0.469-11.407,0.235l-0.782-0.251
				c0.178,0.007,0.359,0.014,0.539,0.016C161.539,82.123,173.189,74.858,171.976,62.668z"/>
			<path fill="#744618" d="M140.811,53.823c3.853,0.247,8.341,5.676,10.917,0.781c1.95-3.702-0.854-9.141,0.812-12.966
				c0.87,0.652,1.828,0.995,2.492,1.962c-1.671-11.281-10.299-23.274-21.376-27.708c2.219,1.827,4.987,4.973,4.978,7.77
				c-0.007,1.779-1.534,3.218-1.462,4.922c0.107,2.533,2.003,4.068,3.556,5.897c5.328,6.273-2.219,6.417-7.467,6.408
				c-5.816-0.005-6.043,2.441-6.337,7.332c-1.25-0.087-2.282-0.159-3.534-0.246c0.165,0.924-0.533,0.735-0.78,1.353l8.008,13.01
				c-0.564-4.478,7.061,0.106,8.761-1.458C142.1,58.38,133.089,53.331,140.811,53.823z M154.195,71.043
				c3.634-1.906,8.842-1.829,11.31-5.837c-5.949,4.263-12.521,1.066-19.18,2.109c2.61,6.243-8.636,1.607-5.152,6.275l0.366,1.408
				c3.712,3.708,16.952,2.46,20.981-0.019C159.221,75.37,148.021,74.284,154.195,71.043z M47.672,56.875
				c-1.555-1.097-0.855-3.406-0.712-4.956c-0.509,0.208-1.359,0.243-1.882,0.643c0.312-1.156,0.811-2.581,0.707-3.726l-6.069,10.783
				c3.648-1.459,2.723,3.313,3.582,4.746c0.898,1.497,2.025,0.539,3.032,1.573c0.806,0.826,0.396,2.667,0.48,3.69
				c1.435-4.708,4.114-9.197,5.989-13.729C51.562,56.779,49.167,57.927,47.672,56.875z M46.027,33.187
				c-2.493-1.458-0.883-3.324-4.332-2.199c-0.057-0.884,0.088-1.68,0.206-2.547l-1.457,2.344c-2.108,1.875-2.745,5.37-3.408,7.899
				c1.692-4.426,5.501,4.677,6.563,4.776c2.918,0.271,6.569-9.541,9.646-4.497c0.93-2.318,1.699-6.078,1.964-8.578
				C53.256,32.465,48.925,34.885,46.027,33.187z"/>
			<path fill="#744618" d="M159.274,69.464c-14.076,3.595-26.048-7.032-26.048-7.032s9.866,12.033,22.81,10.627
				c4.494-0.489,8.008-2.462,10.686-4.831c4.236-4.184,4.862-10.868,2.273-15.998C169.179,53.562,170.647,66.562,159.274,69.464z
				 M50.574,100.117c-2.303-0.059-4.488-2.171-5.276-3.167l-0.041-0.146c3.599,1.55,6.981,1.672,9.795,1.226
				c-0.306,0.01-0.615,0.019-0.938,0.036c-16.989,0.78-19.899-15.161-19.899-15.161c-1.457-6.875,2.425-17.19,2.425-17.19
				l-0.004-0.006c-0.014,0.039-0.03,0.077-0.044,0.118l-0.03-0.111c-3.156,1.522-6.431-3.282-6.431-3.282
				c-7.887,13.713,3.031,20.511,3.031,20.511c-3.031,1.29-6.55-0.351-6.55-0.351c2.305,4.688,7.644,5.156,7.644,5.156
				c-2.061,4.808,1.212,9.377,1.212,9.377c-0.729-2.813,1.094-5.742,1.094-5.742c-0.123,4.687,3.639,10.313,7.644,12.659
				c3.275,1.875,10.436,2.226,10.92-2.814l-1.334-2.637C53.792,98.592,52.88,100.173,50.574,100.117z M150.619,65.48
				c7.899,1.625,11.724-1.14,13.329-2.992l0.015-0.29c-0.258-2.091-0.601-4.132-1.015-6.126c-0.616,1.943-1.821,3.531-3.253,4.809
				c-2.393-9.864-10.777-19.312-10.777-19.312c4.548,6.389,8.04,17.538,8.975,20.706C154.433,64.6,150.619,65.48,150.619,65.48z
				 M84.125,13.906c-1.941-2.345-2.911-5.392-2.911-5.392l-0.243,2.112c0,0,2.912,2.108,0.728,4.452
				c-2.184,2.344-3.64,5.391-2.913,6.329C79.516,22.346,80,24.454,80,24.454c0.971,6.8-4.612,11.02-4.612,11.02l0.041,0.013
				c0.04-0.041,0.083-0.08,0.123-0.121c0.667-0.378,1.051-0.595,1.051-0.595c2.891-1.649,5.723-2.619,8.478-3.031
				c-0.899-1.921-2.075-5.463-0.227-8.221C87.523,19.534,86.066,16.25,84.125,13.906z M88.735,29.144
				c13.105-1.172,26.694,13.128,26.694,13.128s-3.156-6.331-3.156-8.204c0-1.023,3.029-1.627,6.496-2.802
				c3.926,2.409,12.449,8.693,18.26,20.617c0,0-3.856-13.364-15.517-21.667c1.629-0.711,3.2-1.6,4.465-2.763
				c5.051,2.018,19.25,9.087,24.398,26.305c0,0-3.3-20.819-22.668-29.291c0.118-1.784-1.063-3.74-2.591-5.575
				c5.495,1.505,16.064,5.773,23.314,17.284c0,0-6.707-16.973-27.34-21.491c-1.415-1.407-2.391-2.461-2.022-2.889
				c1.212-1.406,7.765-0.469,7.765-0.469C98.686-2.27,84.366,7.576,84.366,7.576l1.942-0.234c0,0,0.243,4.688,2.185,6.096
				c1.941,1.406,2.912,6.798,0,10.548C85.582,27.737,88.735,29.144,88.735,29.144z M172.032,63.415
				c-0.186,2.254-1.925,14.447-17.775,15.581c-17.471,1.251-25.235-14.063-37.533-31.881
				c-12.293-17.814-28.796-15.783-28.796-15.783l0.021,0.179c15.124-0.175,27.534,16.062,33.791,28.341
				c3.654,6.908,8.346,14.112,14.966,18.332c0.07,6.534-1.943,9.955-1.943,9.955c0.08,7.971-6.794,18.911-6.794,18.911l-0.16,0.625
				c7.036,4.219,13.83-0.938,13.83-0.938c-6.553,1.405-8.735-3.752-8.735-3.752c10.435,8.206,18.199-3.045,18.199-3.045
				c-5.823,2.343-7.765-0.706-7.765-0.706c10.92,1.173,13.349-8.907,13.349-8.907c-7.283,5.627-14.805,0.704-14.805,0.704
				c14.317,4.454,18.686-9.143,18.686-9.143c-3.881,1.641-7.523,0.469-11.405,0.234l-0.784-0.25
				c0.178,0.007,0.361,0.014,0.541,0.016C161.277,82.118,172.705,75.153,172.032,63.415z M136.057,40.631
				c7.282,9.143,10.194,23.442,10.194,23.442l2.667,0.939C145.763,49.071,136.057,40.631,136.057,40.631z M40.444,57.275
				c0,0-3.398-20.395,10.434-35.164c0,0-17.717,12.659-13.104,41.024L40.444,57.275z M42.629,92.672
				c-8.252-11.486-2.914-30.005-2.914-30.005C29.523,85.64,42.629,92.672,42.629,92.672z M71.263,26.096
				c-0.97-2.344,0-3.75,2.425-7.033c2.429-3.281,2.669-6.329,2.185-7.501c-0.486-1.171,0.972-3.048,0.972-3.048
				s-24.51,7.033-27.421,36.101c0,0,8.493-8.438,13.833-9.377c0,0,2.425,0.938,0.241,3.985c-2.184,3.048-7.766,8.909-7.766,8.909
				s4.854-3.75,10.677-8.439c5.825-4.688,8.978-8.44,9.222-10.316C75.875,27.504,72.234,28.441,71.263,26.096z M42.95,77.409
				c1.29-0.461,3.089,0.905,3.724,1.824c0,0,3.803-4.611,7.441-7.5c0,0,0.97-1.019,1.859-5.94c0.86-4.755,3.759-17.014,8.404-21.858
				c-0.236,0.172-0.474,0.345-0.719,0.527C44.264,58.829,43.008,74.465,42.95,77.409z"/>
			<path fill="#744618" d="M163.948,62.489l0.015-0.29c-0.122-0.995-0.267-1.979-0.427-2.952c-2.475,4.442-9.036,6.586-9.036,6.586
				l-0.252,0.118C159.733,66.203,162.611,64.032,163.948,62.489z M164.63,77.656c-0.426,0.168-0.887,0.367-1.393,0.599
				c-8.132,3.752-15.653,1.992-24.996-1.875c-9.343-3.868-15.896-16.291-15.896-16.291l-0.18,0.565
				c3.592,6.656,8.175,13.473,14.539,17.531c0.068,6.534-1.943,9.956-1.943,9.956c0.08,7.972-6.794,18.911-6.794,18.911l-0.16,0.626
				c7.034,4.217,13.83-0.938,13.83-0.938c-0.173,0.037-0.345,0.067-0.514,0.097c-2.974,1.916-8.304-0.155-10.265-1.031
				c0.294-1.053,0.927-2.144,1.724-3.221c0.098,0.146,0.21,0.294,0.334,0.439c-0.01-0.021-0.017-0.036-0.017-0.036
				c10.437,8.206,18.201-3.046,18.201-3.046c-0.062,0.024-0.121,0.044-0.185,0.069c-0.019,0.017-0.038,0.03-0.057,0.048
				c-7.498,6.119-13.711,0.521-15.195-1.034c0.581-0.613,1.146-1.199,1.649-1.746c2.61,1.882,5.426,2.062,6.108,2.075
				c-0.057-0.072-0.086-0.117-0.086-0.117c9.793,1.052,12.754-6.946,13.262-8.606c-0.011,0.016-0.023,0.032-0.038,0.052
				c-5.576,8.03-14.457,4.521-17.226,3.151c0.376-1.977-0.112-4.19-0.489-5.472c12.902,5.033,21.598-6.238,21.598-6.238l0.038,0.004
				c0.058-0.153,0.085-0.238,0.085-0.238c-3.881,1.642-7.523,0.469-11.407,0.234l-0.782-0.25c0.178,0.007,0.359,0.014,0.539,0.016
				C154.756,81.997,160.385,80.5,164.63,77.656z M170.518,59.15c-4.975,16.175-23.904,12.424-23.904,12.424l0.742,0.531
				c2.656,0.854,5.579,1.291,8.681,0.954c4.494-0.489,8.008-2.461,10.686-4.831c2.482-2.449,3.721-5.757,3.805-9.108
				C170.522,59.13,170.521,59.14,170.518,59.15z M34.255,83.647c-0.968,1.406-4.853,0.939-4.853,0.939
				c2.425,2.226,5.824,1.874,5.824,1.874L34.255,83.647z M67.684,13.083c1.32,0.372,5.319,1.642,5.523,3.402
				c0.242,2.109-4.61,6.564-5.341,10.198c-0.728,3.633,4.732,2.929,5.098,4.688c0.265,1.278-4.601,6.271-7.276,8.904
				c0.237-0.192,0.48-0.385,0.723-0.581c5.825-4.688,8.979-8.44,9.222-10.316c0.243-1.874-3.397-0.937-4.369-3.282
				c-0.97-2.343,0-3.75,2.425-7.032c2.429-3.282,2.67-6.329,2.186-7.502c-0.486-1.171,0.971-3.048,0.971-3.048
				S72.735,9.696,67.684,13.083z M52.186,55.34c-0.536,0.633-1.01,1.244-1.395,1.816c-0.052,0.08-0.106,0.159-0.154,0.237
				c0,0,0.114-0.048,0.31-0.131c-0.729,0.944-2.049,2.712-3.026,4.309c-0.324,0.533-0.608,1.046-0.824,1.506
				c-0.083,0.185-0.163,0.364-0.221,0.528l0.103-0.074c-0.528,1.052-1.219,2.475-1.853,3.915c-0.803,1.829-1.507,3.683-1.65,4.835
				c-0.03,0.249-0.034,0.484-0.017,0.708c-0.306,1.294-0.415,2.52-0.452,3.334c-0.028,0.613-0.014,0.995-0.014,0.995l0.085,0.057
				c1.279-0.332,2.982,0.968,3.596,1.857c0,0,3.803-4.611,7.441-7.5c0,0,0.693-0.728,1.444-3.921
				c-2.218-0.549-6.379,0.482-6.379,0.482c0.769-1.116,5.271-3.258,7.106-4.1c0.18-0.875,0.403-1.874,0.666-2.952
				c-1.88,1.225-4.605,2.995-6.998,4.514c1.587-1.828,4.605-5.005,7.486-6.43c0.304-1.137,0.646-2.325,1.027-3.528
				c-1.6,0.619-3.917,1.619-6.295,3.012l1.604-2.67c1.581-0.593,3.498-1.25,5.112-1.626c0.438-1.295,0.918-2.583,1.443-3.818
				l-2.899,0.84l3.53-2.253c0.889-1.889,1.884-3.583,2.985-4.866C63.368,44.875,56.104,50.701,52.186,55.34z M33.893,81.655
				c-0.182-0.751-0.092-2.509,0.095-4.416c0.044-0.45,0.093-0.912,0.146-1.367c0.312-2.738,0.727-5.353,0.727-5.353
				c-1.818,1.992-4.125,0.937-4.125,0.937c-0.971-1.757-0.363-5.744-0.363-5.744C25.883,75.911,33.893,81.655,33.893,81.655z
				 M84.367,7.578l1.943-0.234c0,0,0.242,4.688,2.184,6.095c1.941,1.406,2.912,6.798,0,10.548c-2.912,3.751,0.242,5.158,0.242,5.158
				c3.732-0.333,7.499,0.587,10.984,2.072l0.423,0.038c0,0-3.886-2.11-4.248-4.688c-0.364-2.58,6.915-7.032,6.066-9.612
				c-0.848-2.579-8.372-6.446-8.493-8.44c-0.111-1.801,11.294-3.699,16.887-3.09C93.107,1.567,84.367,7.578,84.367,7.578z
				 M34.982,92.672c0.245-1.641,1.699-3.282,1.699-3.282l-1.455-2.344C34.136,89.039,34.982,92.672,34.982,92.672z M55.052,98.029
				c-0.306,0.011-0.615,0.02-0.938,0.036c-6.094,0.28-10.376-1.592-13.364-4.11l-0.913-0.227c0.243,5.274,5.579,10.196,9.826,10.431
				c3.647,0.202,4.969-2.535,5.267-3.313l-1.141-2.254c0,0-0.911,1.581-3.217,1.524c-2.304-0.059-4.489-2.171-5.276-3.167
				l-0.041-0.146C48.856,98.354,52.237,98.477,55.052,98.029z"/>
			<path fill="#744618" d="M74.04,9.581c-0.412,0.933-0.737,1.934-0.675,2.684c0.163,1.878,1.294,2.501,0,5.627
				c-1.292,3.128-3.073,5.938-2.912,8.909c0.164,2.969,2.588,2.031,3.399,2.969c0.515,0.598-0.017,2.271-0.475,3.409
				c1.379-1.617,2.141-2.916,2.254-3.801c0.243-1.874-3.397-0.937-4.369-3.282c-0.97-2.343,0-3.75,2.426-7.032
				c2.429-3.282,2.67-6.329,2.186-7.502c-0.487-1.171,0.971-3.048,0.971-3.048S75.768,8.825,74.04,9.581z M52.186,55.34
				c-0.536,0.633-1.01,1.244-1.395,1.816c-0.052,0.08-0.106,0.159-0.154,0.237c0,0,0.114-0.048,0.31-0.131
				c-0.729,0.944-2.049,2.712-3.026,4.309c-0.324,0.533-0.608,1.046-0.824,1.506c-0.083,0.185-0.163,0.364-0.221,0.528l0.103-0.074
				c-0.528,1.052-1.219,2.475-1.853,3.915c-0.803,1.829-1.507,3.683-1.65,4.835c-0.03,0.249-0.034,0.484-0.017,0.708
				c-0.306,1.294-0.415,2.52-0.452,3.334c-0.028,0.613-0.014,0.995-0.014,0.995l0.085,0.057c1.279-0.332,2.982,0.968,3.596,1.857
				c0,0,3.803-4.611,7.441-7.5c0,0,0.428-0.449,0.977-2.192c-0.924,0.452-5.713,2.739-7.61,2.739c-0.96,0-1.482-0.621-1.766-1.296
				c0.257-1.185,0.614-2.434,1.105-3.7l7.941-7.819l-4.575,1.163c1.355-2.455,2.518-4.374,3.472-5.719l4.662-1.228l-2.84-0.834
				c1.146-0.882,4.718-4.027,6.563-5.663c0.595-1.042,1.229-1.984,1.903-2.77C63.368,44.875,56.104,50.701,52.186,55.34z
				 M135.646,93.188c0.192-0.64,0.31-1.164,0.33-1.53c0.119-2.06,1.366-5.543,2.024-7.261c9.848,2.659,18.16-0.921,19.943-1.78
				c-2.93,0.428-5.782-0.311-8.782-0.493l-0.782-0.25c0.178,0.007,0.359,0.014,0.539,0.016c0.745,0.014,1.48,0.001,2.213-0.036
				l-1.726-0.041c-4.74,0.524-10.839-2.458-12.697-3.442c0.029,6.412-1.944,9.771-1.944,9.771c0.08,7.971-6.796,18.91-6.796,18.91
				l-0.158,0.627c4.71,2.824,9.313,1.446,11.838,0.226c-0.239,0.046-0.488,0.097-0.757,0.165c-5.02,1.242-8.296-0.776-9.428-1.657
				c0.734-1.121,1.654-2.804,2.572-4.649c0.772,1.362,2.986,2.64,4.423,3.357c5.981,2.493,10.728-0.988,13.063-3.34
				c-0.969,0.552-5.197,2.792-9.176,2.381c-3.89-0.402-6.466-3.914-7.117-4.899c0.313-0.682,0.613-1.36,0.893-2.02
				c0.736,0.37,1.468,0.698,2.201,1.093c0.346-0.364,0.684-0.719,0.994-1.056c2.608,1.881,5.426,2.062,6.109,2.075
				c-0.058-0.072-0.087-0.118-0.087-0.118c5.992,0.646,9.421-2.099,11.303-4.707c-0.127,0.083-0.254,0.168-0.385,0.255
				C145.458,100.721,137.623,94.891,135.646,93.188z M30.818,73.215c0,0,0.719,5.204,2.981,6.756
				c0.022-0.789,0.092-1.74,0.188-2.731c0.044-0.45,0.093-0.912,0.146-1.368c0.027-0.254,0.058-0.504,0.087-0.756
				C33.126,75.048,31.526,74.686,30.818,73.215z M84.367,7.578l1.943-0.234c0,0,0.242,4.688,2.184,6.095
				c1.941,1.406,2.912,6.798,0,10.548c-2.912,3.751,0.242,5.158,0.242,5.158c1.653-0.148,3.314-0.047,4.956,0.237l0.223-0.237
				c0,0-5.826-2.031-4.044-5.47c1.779-3.438,6.793-4.533,5.823-7.658c-0.969-3.125-7.766-5.002-6.634-7.502
				c1.133-2.5,11.812-4.219,11.812-4.219l0.057-0.133C89.927,3.754,84.367,7.578,84.367,7.578z M55.018,98.033
				c0,0,0-0.002-0.002-0.002c-0.295,0.01-0.594,0.02-0.901,0.034c-5.019,0.229-8.807-1.001-11.656-2.848l-0.637,0.032
				c0,0,2.263,5.472,5.983,6.254c3.036,0.636,5.638-0.389,6.76-1.384l-0.773-1.527c0,0-0.911,1.581-3.218,1.524
				c-2.304-0.059-4.489-2.171-5.276-3.167l-0.041-0.146C48.841,98.35,52.212,98.476,55.018,98.033z"/>
			<path fill="#744618" d="M118.503,34.301l1.78-1.718c0,0-8.735-6.096-18.928-7.346C101.355,25.237,113.003,28.988,118.503,34.301z
				 M125.62,29.144l2.591-0.313c-5.338-4.377-21.841-5.782-21.841-5.782C113.489,24.299,125.62,29.144,125.62,29.144z
				 M114.46,18.987c5.339,0.467,6.311,0.624,12.943,2.188l1.294-1.095C124.165,17.735,114.46,18.987,114.46,18.987z M50.232,26.644
				l0.809,1.563c0,0,3.721-7.19,18.767-13.128C69.808,15.078,56.38,17.422,50.232,26.644z M64.826,19.966
				c0,0-11.058,3.059-15.412,11.293l0.814,1.244C50.229,32.503,52.724,26.171,64.826,19.966z M48.452,45.865l8.738-7.658
				c0,0,5.968-4.415,10.704-6.183c-3.744,1.225-12.703,4.568-18.957,10.245L48.452,45.865z M69.646,31.489
				c-0.552,0.124-1.144,0.31-1.75,0.537C68.994,31.666,69.646,31.489,69.646,31.489z M98.767,27.424
				c10.354,4.064,17.797,10.473,17.797,10.473l-0.971-2.97C112.518,31.176,98.767,27.424,98.767,27.424z M128.372,12.11
				c-6.471-3.438-25.398-2.814-25.398-2.814c15.853,1.406,25.398,4.688,25.398,4.688V12.11z M146.492,90.563
				c7.039,1.523,9.463-3.398,9.463-3.398C152.315,89.977,146.492,90.563,146.492,90.563z M141.276,100.058l-2.185,0.35
				c3.153,2.579,7.885,0.938,7.885,0.938C144.671,101.579,141.276,100.058,141.276,100.058z M31.343,65.714
				c0,0,1.944,2.697,4.125,2.93l0.851-1.874C36.319,66.771,32.922,67.237,31.343,65.714z"/>
			<path fill="#744618" d="M79.729,27.033c-0.089,5.585-5.423,9.724-9.685,12.728c-2.072,1.461-4.217,2.815-6.24,4.343
				c-2.298,1.737-4.473,3.629-6.525,5.634c-4.262,4.167-8.029,8.891-10.784,14.125c-2.599,4.938-4.235,10.456-3.864,16.032
				c0.167,2.472,0.733,4.98,1.75,7.26c1.004,2.25,2.631,4.21,4.535,5.812c3.176,2.665,7.543,4.319,11.57,3.217
				c-2.264,1.111-4.864,1.733-7.307,1.884c-5.885,0.355-11.799-2.545-15.306-7.072c-5.922-7.647-3.793-18.417-0.58-26.67
				c3.993-10.254,10.779-19.269,19.779-25.961c0.767-0.569,1.542-1.127,2.331-1.666c0.062-0.043,0.003-0.142-0.063-0.1
				c-5.59,3.652-10.474,8.195-14.451,13.468c-2.708,3.592-4.943,7.533-6.771,11.61c-0.597,1.336-1.152,2.696-1.647,4.075
				c-2.497,1.037-5.052-1.486-6.317-3.331c-0.01-0.017-0.04-0.02-0.051,0c-2.445,4.278-3.805,9.297-2.055,14.05
				c0.891,2.419,2.556,4.627,4.656,6.201c0.123,0.095,0.247,0.184,0.376,0.268c0.021,0.016,0.041,0.028,0.063,0.04
				c-0.14-0.088-0.596,0.147-0.74,0.188c-0.365,0.107-0.746,0.161-1.123,0.201c-1.533,0.162-3.251-0.167-4.646-0.81
				c-0.041-0.02-0.08,0.018-0.061,0.059c1.418,2.816,4.348,4.747,7.549,5.165c0.253,0.034,0.013,0.137-0.069,0.347
				c-0.237,0.621-0.378,1.271-0.464,1.923c-0.153,1.155-0.028,2.336,0.243,3.464c0.306,1.26,0.835,2.565,1.597,3.636
				c0.031,0.041,0.095,0.017,0.083-0.034c-0.37-1.55-0.067-3.125,0.53-4.583c0.147-0.363,0.319-0.716,0.516-1.054
				c0.013-0.023,0.026-0.046,0.038-0.067c-0.099,0.168-0.084,0.264-0.081,0.456c0.008,0.331,0.039,0.665,0.081,0.993
				c0.396,2.828,1.789,5.471,3.594,7.698c1.503,1.854,3.414,3.529,5.761,4.271c1.887,0.598,4.049,0.749,5.96,0.184
				c1.619-0.479,2.822-1.63,3.175-3.245c0.044-0.199,0.13-0.449,0.034-0.641c-0.138-0.276-0.278-0.551-0.417-0.828
				c-0.292-0.574-0.584-1.15-0.876-1.727c-0.013-0.029-0.058-0.026-0.073,0c-0.744,1.263-2.474,1.667-3.854,1.429
				c-1.761-0.304-3.369-1.624-4.469-2.954c0.578,0.241,1.168,0.453,1.768,0.636c4.703,1.443,9.855,0.679,14.138-1.589
				c0.521-0.276,1.048-0.575,1.525-0.924c0.181-0.133,0.021-0.427-0.185-0.305c-5.358,3.187-11.703,0.111-15.424-4.018
				c-3.284-3.643-4.445-8.646-4.281-13.427c1.376-0.418,2.943,0.801,3.678,1.826c0.007,0.013,0.029,0.019,0.041,0.004
				c1.203-1.445,2.49-2.832,3.815-4.175c1.108-1.12,2.264-2.201,3.495-3.198c0.219-0.178,0.335-0.382,0.471-0.633
				c0.968-1.859,1.279-4.037,1.669-6.057c0.393-2.044,0.876-4.074,1.417-6.084c0.792-2.947,1.736-5.865,2.946-8.68
				c0.967-2.246,2.133-4.549,3.845-6.371c2.838-2.105,5.837-4.003,8.586-6.223c3.35-2.708,6.837-6.303,6.85-10.794
				C79.785,26.998,79.729,27,79.729,27.033z M51.651,100.057c0.815-0.164,1.565-0.64,2.062-1.279c0.149-0.189,0.02-0.206,0.13,0.013
				c0.193,0.378,0.385,0.759,0.578,1.141c0.182,0.361,0.365,0.723,0.547,1.084c0.199,0.391,0.033,0.813-0.093,1.22
				c-0.315,1.016-1.072,1.807-2.022,2.31c-1.902,1.012-4.381,0.861-6.408,0.337c-2.733-0.702-4.863-2.671-6.524-4.805
				c-1.917-2.466-3.365-5.562-3.313-8.692c0.001-0.043-0.063-0.062-0.086-0.022c-0.521,0.853-0.87,1.824-1.088,2.784
				c-0.183,0.789-0.226,1.604-0.124,2.405c0.014,0.113,0.036,0.223,0.058,0.335c-0.026-0.041-0.052-0.082-0.079-0.123
				c-1.656-2.69-2.208-6.054-0.986-9.001c0.015-0.03-0.017-0.055-0.045-0.058c-2.143-0.194-4.301-1.269-5.823-2.701
				c-0.7-0.657-1.262-1.439-1.704-2.276c-0.016-0.03-0.033-0.05-0.046-0.064c0.026,0.016,0.062,0.035,0.121,0.058
				c0.257,0.103,0.519,0.194,0.782,0.279c1.804,0.571,3.812,0.702,5.588-0.016c0.032-0.014,0.041-0.053,0.01-0.073
				c-1.663-1.037-3.035-2.671-4.021-4.302c-2.458-4.063-2.226-8.858-0.497-13.139c0.29-0.718,0.628-1.417,0.986-2.107
				c0.069-0.133,0.528-0.804,0.458-0.905c0.034,0.048,0.068,0.097,0.103,0.144c0.409,0.558,0.874,1.076,1.371,1.561
				c1.27,1.236,3.072,2.363,4.887,1.588c-1.118,3.103-1.945,6.304-2.346,9.564c-0.533,4.352-0.209,8.893,1.705,12.914
				c1.871,3.93,5.358,7.015,9.438,8.746c0,0.001,0,0.002,0,0.003C46.737,98.807,49.126,100.564,51.651,100.057z M61.159,48.72
				c-1.133,2.293-2.005,4.704-2.772,7.129c-0.722,2.283-1.332,4.6-1.851,6.935c-0.497,2.21-0.799,4.467-1.458,6.64
				c-0.226,0.742-0.469,1.646-0.984,2.264c-0.188,0.225-0.5,0.41-0.729,0.603c-0.487,0.413-0.957,0.841-1.422,1.275
				c-0.857,0.801-1.679,1.636-2.48,2.484c-0.96,1.011-1.89,2.055-2.777,3.125c-0.014,0.018-0.34-0.383-0.414-0.456
				c-0.324-0.342-0.706-0.625-1.106-0.878c-0.641-0.399-1.44-0.679-2.19-0.454c0.027-0.77,0.087-1.537,0.182-2.292
				c0.717-5.805,3.388-11.268,6.697-16.1c3.367-4.909,7.563-9.302,12.179-13.14c0.587-0.487,1.187-0.957,1.795-1.418
				C62.729,45.725,61.89,47.234,61.159,48.72z M36.946,64.313c0.007,0.023,0.048,0.015,0.039-0.011
				c-2.12-5.678-3.044-11.732-2.528-17.757c0.501-5.815,2.367-11.475,5.333-16.548c3.043-5.215,7.275-9.74,12.209-13.343
				c5.503-4.019,11.886-6.699,18.531-8.4c3.363-0.859,6.806-1.452,10.277-1.668c0.219-0.015,0.58-0.38,0.764-0.493
				c1.98-1.211,4.264-1.963,6.526-2.503c4.674-1.117,9.574-1.229,14.354-0.868c6.381,0.48,12.824,1.765,18.831,3.909
				c10.277,3.667,19.354,10.145,26.369,18.233c7.993,9.219,13.124,20.501,15.409,32.283c0.323,1.674,0.594,3.36,0.812,5.051
				c0.013,0.113,0.199,0.114,0.185,0c-1.475-11.993-5.802-23.63-13.069-33.495c-6.337-8.603-14.857-15.7-24.729-20.261
				c-5.252-2.426-10.821-3.97-16.534-4.99c-5.659-1.011-11.493-1.464-17.228-0.827c-3.167,0.355-6.34,1.057-9.243,2.357
				c-0.702,0.315-1.388,0.669-2.034,1.085c-0.143,0.094-0.283,0.188-0.418,0.29c-0.022,0.017-0.043,0.034-0.066,0.05
				C80.67,6.46,80.151,6.425,80.04,6.434c-0.458,0.033-0.913,0.079-1.37,0.127c-13.019,1.366-25.763,7.055-34.309,16.77
				c-7.708,8.764-11.408,20.355-9.854,31.78C34.938,58.269,35.774,61.342,36.946,64.313z M172.13,62.668
				c-0.013-0.139-0.21-0.217-0.288-0.076c-0.7,1.234-1.646,2.367-2.609,3.411c-2.217,2.393-4.943,4.36-8.027,5.582
				c-2.674,1.059-5.569,1.479-8.45,1.331c-3.966-0.201-7.813-1.543-11.333-3.257c-0.055-0.028-0.105,0.051-0.051,0.082
				c4.62,2.447,9.885,3.938,15.181,3.298c3.681-0.444,7.109-1.972,9.998-4.188c2.028-1.551,3.975-3.504,5.312-5.684
				c0.158,2.415-0.174,4.822-1.106,7.082c-0.937,2.269-2.5,4.259-4.374,5.884c-4.049,3.508-9.557,5.201-14.909,5.549
				c-2.932,0.187-5.87-0.053-8.691-0.875c-2.674-0.776-5.148-2.082-7.376-3.696c-4.566-3.309-7.999-7.911-10.869-12.618
				c-1.36-2.236-2.54-4.558-3.795-6.846c-1.223-2.228-2.555-4.399-3.984-6.507c-2.982-4.394-6.447-8.537-10.513-12.035
				c-3.773-3.248-8.228-5.949-13.188-7.083c-5.109-1.171-10.352-0.338-15,1.951c-0.496,0.245-0.977,0.52-1.453,0.797
				c-0.004,0.003-0.002,0.007,0.001,0.006c4.909-2.703,10.405-3.936,15.992-2.763c5.171,1.086,9.728,3.972,13.614,7.347
				c4.112,3.576,7.561,7.839,10.561,12.313c2.893,4.31,5.052,8.988,7.757,13.395c2.812,4.577,6.189,8.949,10.587,12.214
				c0.499,0.371,1.015,0.721,1.541,1.054c-0.006,2.697-0.316,5.419-1.19,7.988c-0.19,0.552-0.408,1.102-0.673,1.623
				c-0.029,0.056-0.078,0.115-0.095,0.177c-0.062,0.216-0.007,0.528-0.013,0.756c-0.015,0.353-0.045,0.702-0.078,1.055
				c-0.499,5.051-2.767,9.975-5.17,14.429c-0.581,1.079-1.385,2.111-1.691,3.296c-0.009,0.031,0.004,0.061,0.031,0.074
				c2.892,1.701,6.225,2.063,9.465,1.161c1.56-0.436,3.16-1.137,4.446-2.111c0.053-0.04-0.006-0.115-0.063-0.103
				c-2.44,0.505-4.949,0.19-6.878-1.428c-0.54-0.452-1.003-0.992-1.384-1.575c-0.109-0.163-0.207-0.332-0.298-0.504
				c-0.009-0.014-0.013-0.024-0.02-0.035c0.036,0.047,0.083,0.1,0.136,0.142c2.026,1.537,4.438,2.64,7.039,2.756
				c2.012,0.091,3.987-0.494,5.728-1.443c2.019-1.101,3.915-2.754,5.21-4.622c0.027-0.04-0.02-0.104-0.067-0.085
				c-2.137,0.847-4.851,1.447-6.906,0.073c-0.296-0.197-0.593-0.45-0.791-0.743c0.201,0.294,1.43,0.172,1.789,0.172
				c0.611-0.002,1.223-0.053,1.828-0.135c3.732-0.512,6.738-2.853,8.513-5.995c0.512-0.908,0.974-1.902,1.219-2.913
				c0.013-0.055-0.049-0.085-0.091-0.053c-2.652,2.018-5.854,2.979-9.216,2.586c-1.836-0.213-3.668-0.82-5.261-1.729
				c-0.089-0.05-0.178-0.103-0.264-0.157c0.59,0.379,1.419,0.497,2.125,0.641c1.181,0.241,2.386,0.357,3.592,0.339
				c1.979-0.029,3.935-0.504,5.688-1.391c3.391-1.718,6.153-5.148,7.291-8.682c0.013-0.034-0.025-0.051-0.053-0.039
				c-3.719,1.524-7.541,0.484-11.388,0.238c-0.034-0.003-0.034,0.049,0,0.05c3.532,0.233,7.06,1.175,10.541,0.1
				c0.165-0.05,0.762-0.164,0.829-0.366c-0.004,0.013-0.008,0.025-0.015,0.039c-0.025,0.077-0.055,0.155-0.082,0.229
				c-0.123,0.327-0.258,0.646-0.406,0.961c-1.183,2.568-2.993,4.924-5.372,6.565c-3.773,2.601-8.476,2.627-12.763,1.309
				c-0.056-0.016-0.083,0.059-0.038,0.088c3.126,2.035,7.438,2.536,10.978,1.394c0.704-0.226,1.377-0.532,2.028-0.879
				c0.383-0.206,0.746-0.438,1.11-0.678c0.229-0.151,0.592-0.324,0.66-0.587c-0.051,0.202-0.117,0.4-0.183,0.599
				c-0.378,1.115-0.918,2.183-1.569,3.169c-1.034,1.563-2.422,2.893-4.091,3.814c-2.259,1.245-4.9,1.538-7.453,1.277
				c-0.045-0.005-0.068,0.05-0.047,0.083c0.488,0.756,1.457,1.217,2.312,1.441c1.043,0.274,2.153,0.198,3.203-0.002
				c0.372-0.069,0.735-0.172,1.098-0.277c0.357-0.106,0.935-0.204,1.148-0.514c-0.036,0.055-0.076,0.107-0.119,0.162
				c-1.768,2.375-4.316,4.41-7.201,5.35c-3.862,1.258-7.725-0.1-10.783-2.481c-0.042-0.032-0.131-0.003-0.105,0.06
				c1.144,2.674,4.16,4.139,7.043,4.029c0.539-0.018,1.29-0.028,1.709-0.337c-0.129,0.097-0.265,0.186-0.397,0.271
				c-0.658,0.431-1.36,0.795-2.081,1.113c-2.579,1.145-5.491,1.528-8.256,0.824c-0.853-0.217-1.667-0.559-2.442-0.96
				c-0.032-0.017-0.535-0.287-0.54-0.272c0.021-0.08,0.043-0.159,0.062-0.24c0.027-0.104,0.038-0.268,0.095-0.358
				c0.181-0.291,0.354-0.582,0.525-0.878c0.96-1.639,1.838-3.323,2.646-5.038c1.115-2.363,2.084-4.8,2.779-7.31
				c0.339-1.234,0.597-2.491,0.745-3.763c0.067-0.596,0.102-1.197,0.107-1.798c0-0.148,0.038-0.2,0.107-0.337
				c1.466-2.896,1.834-6.357,1.815-9.546c1.698,1.067,3.53,1.932,5.455,2.554c2.713,0.878,5.564,1.164,8.411,1.072
				c5.242-0.168,10.574-1.663,14.794-4.737c3.944-2.871,6.459-7.121,6.771-11.901C172.248,64.484,172.219,63.573,172.13,62.668z
				 M159.103,65.213c-0.049,0.01-0.027,0.077,0.02,0.068c4.162-0.875,6.831-4.325,8.314-7.969c0.561-1.382,0.969-2.822,1.248-4.281
				c0.067-0.341,0.122-0.683,0.169-1.026c0.034-0.262,0.011,0.063,0.076,0.195c0.354,0.684,0.637,1.401,0.871,2.13
				c1.633,5.023,0.354,10.783-3.665,14.418c-0.021,0.017,0.006,0.044,0.027,0.028c4.869-4.186,5.595-11.468,2.696-16.917
				c-0.025-0.044-0.086-0.018-0.093,0.025c-0.211,1.981-0.816,3.975-1.601,5.81C165.668,61.21,163.039,64.242,159.103,65.213z"/>
		</g>
	</g>
	<path fill="#663910" d="M51.724,94.765c-0.105,0.543-0.102,1.05-0.269,1.583c-0.543,1.735-1.38,1.828-3.259,1.436
		c2.953,0.902,6.476,0.854,9.411-0.118c3.25-1.075,5.99-2.723,5.99-2.723L51.724,94.765z"/>
	<path fill="#663910" d="M53.754,98.57c-2.072,2.408-5.184,0.914-6.941-0.268c-0.605,2.145-2.078,3.964-4.27,4.535
		c4.307,3.485,4.804,3.271,8.544,2.597c3.912-0.703,4.199-4.23,4.199-4.23L53.754,98.57z"/>
	<path fill="#663910" d="M135.999,85.377c0.283-0.368,0.605-0.695,0.952-0.975c0.621-1.673,1.148-3.294,1.218-5.014
		c-0.171,0.536-0.414,1.221-0.751,2.101c-0.681,1.776-1.188,3.09-1.577,4.108C135.896,85.523,135.944,85.449,135.999,85.377z"/>
	<path fill="#663910" d="M137.418,78.797c0,0,0.307-0.467,0.597-0.792c-0.122-0.693-0.239-1.369-0.325-1.988
		c-0.013-0.08-0.005-0.152-0.013-0.23c-1.832-1.964,7.398,1.096,6.512-1.458c-1.102-1.626-12.453-8.83-13.363-10.588
		c-1.309-1.3,4.96-0.852,3.902-2.4c-1.734,0.583-10.954-2.129-12.007-3.658c-2.004-2.905,10.448,2.29,9.099-0.949
		c-0.59-0.033-12.591-10.245-11.978-10.121c22.217,4.449-8.739-3.863-9.754-7.178c-0.021-0.069-0.035-0.137-0.052-0.207
		c-3.113-1.36,5.341,0.199,2.999-2.349c-0.555-0.603-12.186-4.656-12.314-5.311c-5.17-0.32,0.08-1.453-5.138-1.78
		c-5.944-0.374-13.078-5.062-10.24-1.545c-2.366,1.343-10.144,2.601-7.941,1.042c0.462-0.327-6.721,6.438-7.985,4.817
		c-0.054,0.899-2.624,2.787-3.34,3.385c-2.718,2.266-10.688,8.77-14.452,9.127c-0.007,1.179,9.005,0.092,7.698,0.884
		c-0.958,0.583-7.671,4.58-8.571,5.221c-0.513,0.709,3.577,0.986,3.113,1.72c0.034,1.053,0.755-0.852,0,0
		c-0.125,0.142-5.569,8.269-5.669,8.417c-0.051,1.382,5.552-3.438,5.381-2.066c-0.305,2.454,0.278,5.958-1.563,7.124
		c-26.42,20.423-1.49,5.973-4.903,9.419c-0.941,3.097-8.823,9.106-9.051,10.394c-0.293,1.657,5.264,1.054,5.264,1.054h1.269
		l-0.39-2.681c0,0,1.888,1.898,2.245-0.542c0.048-0.338,0.064-0.595,0.063-0.791c0.173,0.457,0.621,1.205,1.684,2.073
		c2.766,2.264,3.624,2.941,3.624,2.941s-0.557-4.612-1.66-8.897c0,0,0.832-7.489,3.205-8.585c0,0,3.832-1.12,5.003-14.775
		c0,0,2.357-11.05,6.406-13.982c0,0,13.308-8.156,13.28-9.568c-0.026-1.415,12.972-3.779,19.043-0.525
		c6.07,3.255,9.104,5.715,10.979,7.625c1.875,1.91,9.995,12.091,18.301,26.839C134.686,82.661,137.418,78.797,137.418,78.797z"/>
	<path fill="#663910" d="M136.604,78.356c0,0-0.44,5.893-1.177,7.212c-0.733,1.32-0.681,2.65-0.933,4.192
		c-0.254,1.542-0.599,4.496-2.09,8.027c-1.493,3.531-4.316,8.286-4.469,9.524c-0.15,1.237,3.456,1.756,4.334,1.835
		c0.88,0.079,3.868,1.592,8.926-2.327c0,0-4.998,1.019-7.839-3.48c0,0-0.091-0.415,0.8-3.371c0.89-2.957,0.015-3.606,0.657,0.333
		c0.644,3.939,3.044,7.563,2.85,0.437c-0.195-7.127,3.063,0.627,4.763,3.416c1.701,2.79-0.804-6.355-1.656-10.415
		c-0.928-4.428-0.406-2.078-1.25-3.959c-0.746-1.661,2.351,1.138,3.389,1.758c1.039,0.619-2.887-5.928-0.087-4.987
		c2.799,0.938,9.29,5.75,6.061,1.582c-3.23-4.167-1.948-2.916-3.816-5.47c-1.867-2.554-1.831-1.68-2.344-2.518
		c-0.51-0.836-0.516-0.296-2.308-1.54C138.626,77.362,136.604,78.356,136.604,78.356z"/>
</g>
</svg>
