<?xml version="1.0" encoding="utf-8"?>
<!-- Generator: Adobe Illustrator 16.0.3, SVG Export Plug-In . SVG Version: 6.00 Build 0)  -->
<!DOCTYPE svg PUBLIC "-//W3C//DTD SVG 1.1//EN" "http://www.w3.org/Graphics/SVG/1.1/DTD/svg11.dtd">
<svg version="1.1" id="Capa_1" xmlns="http://www.w3.org/2000/svg" xmlns:xlink="http://www.w3.org/1999/xlink" x="0px" y="0px"
	 width="200px" height="150px" viewBox="0 0 200 150" enable-background="new 0 0 200 150" xml:space="preserve">
<g>
	<circle fill="#A9DAE1" cx="50.819" cy="49.748" r="25.263"/>
	<ellipse fill="#A9DAE1" cx="44.45" cy="93.886" rx="41.45" ry="39.751"/>
	<circle fill="#A9DAE1" cx="98.431" cy="101.913" r="35.775"/>
	<circle fill="#A9DAE1" cx="137.421" cy="98.131" r="44.084"/>
	<circle fill="#A9DAE1" cx="158.602" cy="75.498" r="37.089"/>
	<circle fill="#A9DAE1" cx="106.795" cy="53.918" r="38.172"/>
	<circle fill="#A9DAE1" cx="65.456" cy="39.667" r="31.883"/>
</g>
<path fill="#A6C3C5" d="M3.649,98.473c0,0,11.677,57.586,64.929,27.934C68.578,126.406,22.989,144.856,3.649,98.473z"/>
<path fill="#A6C3C5" d="M70.766,124.597c0,0,6.055,8.392,18.291,11.846c12.237,3.454,14.806,0.404,23.264-1.552
	C112.321,134.891,85.937,139.224,70.766,124.597z"/>
<path fill="#A6C3C5" d="M113.09,134.891c0,0,45.918,24.256,67.863-29.792c0,0-3.141,24.538-26.554,33.728
	C154.399,138.826,133.237,148.444,113.09,134.891z"/>
<path fill="#A6C3C5" d="M26.898,57.874"/>
<path fill="#A0CDCC" d="M108.896,71.078c0,0-29.173-57.667-77.007-10.696C31.889,60.382,74.862,27.523,108.896,71.078z"/>
<path fill="#A0CDCC" d="M126.633,62.995c0,0-10.261-20.282-27.084-3.762C99.549,59.233,114.663,47.676,126.633,62.995z"/>
<path fill="#A0CDCC" d="M154.316,77.854c0,0-17.207-34.014-45.421-6.309C108.896,71.545,134.242,52.165,154.316,77.854z"/>
<path fill="#A0CDCC" d="M44.18,98.835c0,0,31.124,37.085,57.998-5.343C102.178,93.492,76.439,124.796,44.18,98.835z"/>
<path fill="#A0CDCC" d="M90.078,114.601c0,0,67.238,42.554,88.163-37.292C178.24,77.309,153.547,139.168,90.078,114.601z"/>
<path fill="#A0CDCC" d="M128.895,25.984c0,0-32.939-19.184-41.547,19.41C87.348,45.394,98.077,15.345,128.895,25.984z"/>
<path fill="#A0CDCC" d="M142.756,41.958c0,0,35.608-16.883,51.548,23.477C194.304,65.436,172.695,34.877,142.756,41.958z"/>
</svg>
